BackgroundPattern 0 0 304 304
BarSegment 487 44 16 4
ComputerMotherboard 305 0 79 70
Empty 9 316 1 1
EmptySlot 441 147 18 18
Knob 385 0 50 50
KnobCenter 436 0 50 50
KnobLimits 305 71 50 50
ShadowBorder 0 305 1 24
ShadowCorner 424 122 24 24
TabArrow 499 18 8 14
buttons/BottomDrawerClose 460 147 18 18
buttons/BottomDrawerOpen 479 147 18 18
buttons/PowerOff 424 180 18 18
buttons/PowerOn 443 180 18 18
icons/CPU 424 199 16 16
icons/Card 441 199 16 16
icons/ComponentBus 458 199 16 16
icons/DragLMB 462 180 21 14
icons/DragRMB 484 180 21 14
icons/EEPROM 475 199 16 16
icons/Floppy 492 199 16 16
icons/HDD 449 122 16 16
icons/LMB 500 0 11 14
icons/Memory 466 122 16 16
icons/NA 483 122 16 16
icons/RMB 487 18 11 14
icons/RackMountable 356 219 16 16
icons/SettingsSound 498 147 12 17
icons/SettingsUI 487 0 12 17
icons/Tier0 373 219 16 16
icons/Tier1 390 219 16 16
icons/Tier2 407 219 16 16
items/APU0 356 122 16 96
items/APU1 373 122 16 96
items/APU2 390 122 16 96
items/CPU0 424 219 16 16
items/CPU1 441 219 16 16
items/CPU2 458 219 16 16
items/CardBase 475 219 16 16
items/CircuitBoard 492 219 16 16
items/ComponentBus0 305 251 16 16
items/ComponentBus1 322 251 16 16
items/ComponentBus2 339 251 16 16
items/ComponentBus3 356 251 16 16
items/DataCard0 305 122 16 128
items/DataCard1 322 122 16 128
items/DataCard2 339 122 16 128
items/DebugCard 373 251 16 16
items/DiskDriveMountable 390 251 16 16
items/EEPROM 407 251 16 16
items/FloppyDisk_dyeBlack 424 251 16 16
items/FloppyDisk_dyeBlue 441 251 16 16
items/FloppyDisk_dyeBrown 458 251 16 16
items/FloppyDisk_dyeCyan 475 251 16 16
items/FloppyDisk_dyeGray 492 251 16 16
items/FloppyDisk_dyeGreen 305 268 16 16
items/FloppyDisk_dyeLightBlue 322 268 16 16
items/FloppyDisk_dyeLightGray 339 268 16 16
items/FloppyDisk_dyeLime 356 268 16 16
items/FloppyDisk_dyeMagenta 373 268 16 16
items/FloppyDisk_dyeOrange 390 268 16 16
items/FloppyDisk_dyePink 407 268 16 16
items/FloppyDisk_dyePurple 424 268 16 16
items/FloppyDisk_dyeRed 441 268 16 16
items/FloppyDisk_dyeWhite 458 268 16 16
items/FloppyDisk_dyeYellow 475 268 16 16
items/GraphicsCard0 492 268 16 16
items/GraphicsCard1 305 285 16 16
items/GraphicsCard2 322 285 16 16
items/HardDiskDrive0 339 285 16 16
items/HardDiskDrive1 356 285 16 16
items/HardDiskDrive2 373 285 16 16
items/InternetCard 424 147 16 32
items/LinkedCard 407 122 16 96
items/Memory0 390 285 16 16
items/Memory1 407 285 16 16
items/Memory2 424 285 16 16
items/Memory3 441 285 16 16
items/Memory4 458 285 16 16
items/Memory5 475 285 16 16
items/NetworkCard 492 285 16 16
items/RedstoneCard0 356 71 16 16
items/RedstoneCard1 373 71 16 16
items/Server0 390 71 16 16
items/Server1 407 71 16 16
items/Server2 424 71 16 16
items/Server3 441 71 16 16
items/WirelessNetworkCard0 458 71 16 16
items/WirelessNetworkCard1 475 71 16 16
nodes/Cable 373 105 8 8
nodes/Computer 492 71 16 16
nodes/ComputerActivityOverlay 356 88 16 16
nodes/ComputerErrorOverlay 373 88 16 16
nodes/ComputerOnOverlay 390 88 16 16
nodes/DiskDrive 407 88 16 16
nodes/DiskDriveActivity 424 88 16 16
nodes/DiskDriveFloppy 441 88 16 16
nodes/NewNode 458 88 16 16
nodes/Relay 475 88 16 16
nodes/Screen 492 88 16 16
nodes/ScreenOnOverlay 356 105 16 16
panel/BorderB 8 305 4 4
panel/BorderL 63 305 4 2
panel/BorderR 13 305 4 4
panel/BorderT 18 305 4 4
panel/CornerBL 23 305 4 4
panel/CornerBR 28 305 4 4
panel/CornerTL 33 305 4 4
panel/CornerTR 38 305 4 4
panel/Fill 6 316 2 2
screen/BorderB 5 305 2 8
screen/BorderT 2 305 2 10
screen/CornerBL 382 105 8 8
screen/CornerBR 391 105 8 8
screen/CornerTL 487 33 8 10
screen/CornerTR 496 33 8 10
window/BorderDark 2 316 1 4
window/BorderLight 4 316 1 4
window/CloseButton 400 105 7 6
window/CornerBL 43 305 4 4
window/CornerBR 48 305 4 4
window/CornerTL 53 305 4 4
window/CornerTR 58 305 4 4
